{
	"info": {
		"_postman_id": "e0d3c2e8-494f-4d3f-ae99-4b220b155114",
		"name": "POST_REFERANCE",
		"schema": "https://schema.getpostman.com/json/collection/v2.1.0/collection.json",
		"_exporter_id": "27794154"
	},
	"item": [
		{
			"name": "POST_TC1",
			"event": [
				{
					"listen": "test",
					"script": {
						"exec": [
							"pm.test(\"Status code is 201\", function () {\r",
							"    pm.response.to.have.status(201);\r",
							"});\r",
							"//fetch the  requestbody parameters\r",
							"var requestbody =pm.request.body.raw;\r",
							"requestbody=JSON.parse(requestbody);\r",
							"console.log(requestbody);\r",
							"var req_name=requestbody.name;\r",
							"var req_job=requestbody.job;\r",
							"// fetch the responsebody\r",
							"var responsebody=pm.response.json();\r",
							"console.log(responsebody)\r",
							"// fetch the responsebody\r",
							"var res_name=responsebody.name;\r",
							"var res_job= responsebody.job;\r",
							"var res_id =responsebody.id;\r",
							"var res_createdAt=responsebody.createdAt;\r",
							"//validate the responsebody\r",
							"pm.test(\"validate the responsebody:name\",function()\r",
							"{\r",
							"pm.expect(res_name).to.eqls(req_name);\r",
							"});\r",
							"pm.test(\"validate the responsebody:job\",function()\r",
							"{\r",
							"pm.expect(res_job).to.eqls(req_job);\r",
							"});\r",
							"pm.test(\"validate the responsebody:id\",function()\r",
							"{\r",
							"pm.expect(res_id).to.not.null;\r",
							"});\r",
							"var expecteddate =new  Date().toISOString().slice(0,13);\r",
							"console.log(expecteddate);\r",
							"//validate the response body parameter:createdA\r",
							"pm.test(\"validate the response body parameter:createdAt\",function(){\r",
							"    pm.expect(res_createdAt.slice(0,13)).to.eql(expecteddate)\r",
							"    });\r",
							""
						],
						"type": "text/javascript"
					}
				}
			],
			"request": {
				"method": "POST",
				"header": [],
				"body": {
					"mode": "raw",
					"raw": "{\r\n    \"name\": \"morpheus\",\r\n    \"job\": \"leader\"\r\n}\r\n",
					"options": {
						"raw": {
							"language": "json"
						}
					}
				},
				"url": {
					"raw": "https://reqres.in/api/users",
					"protocol": "https",
					"host": [
						"reqres",
						"in"
					],
					"path": [
						"api",
						"users"
					]
				}
			},
			"response": []
		},
		{
			"name": "POST_TC1 Copy",
			"event": [
				{
					"listen": "test",
					"script": {
						"exec": [
							"pm.test(\"Status code is 201\", function () {\r",
							"    pm.response.to.have.status(201);\r",
							"});\r",
							"var requestbody = pm.request.body.raw;\r",
							"requestbody=JSON.parse(requestbody);\r",
							"var req_name=requestbody.name;\r",
							"var req_job=requestbody.job;\r",
							"var responsebody = pm.response.json();\r",
							"var res_name=responsebody.name;\r",
							"var res_job=responsebody.job;\r",
							"var res_id=responsebody.id;\r",
							"var res_createdAt=responsebody.createdAt;\r",
							"var expecteddate=new Date().toISOString().slice(0,13);\r",
							"pm.test(\"validate the responsebody name\", function()\r",
							"{\r",
							"    pm.expect(res_name).to.eqls(req_name);\r",
							"\r",
							"});\r",
							"pm.expect(\"validate the responsebody job\",function()\r",
							"{\r",
							"    pm.expect(res_job).to.eqls(req_job);\r",
							"});\r",
							"pm.test(\"validate the responsebody id\",function()\r",
							"{\r",
							"    pm.expect(res_id).to.not.null;\r",
							"\r",
							"});\r",
							"pm.test(\"validate the responsebody createdAt \",function()\r",
							"{\r",
							"    pm.expect(res_createdAt.slice(0,13)).to.eqls(expecteddate.slice(0,13));\r",
							"\r",
							"}\r",
							");\r",
							"\r",
							"\r",
							"\r",
							"\r",
							"\r",
							"\r",
							"\r",
							"\r",
							"\r",
							"\r",
							"\r",
							"\r",
							"\r",
							"\r",
							"\r",
							"\r",
							"\r",
							"\r",
							"\r",
							"\r",
							"\r",
							"\r",
							""
						],
						"type": "text/javascript"
					}
				}
			],
			"request": {
				"method": "POST",
				"header": [],
				"body": {
					"mode": "raw",
					"raw": "{\r\n    \"name\": \"morpheus\",\r\n    \"job\": \"leader\"\r\n}\r\n",
					"options": {
						"raw": {
							"language": "json"
						}
					}
				},
				"url": {
					"raw": "https://reqres.in/api/users",
					"protocol": "https",
					"host": [
						"reqres",
						"in"
					],
					"path": [
						"api",
						"users"
					]
				}
			},
			"response": []
		},
		{
			"name": "POST_TC1_1",
			"event": [
				{
					"listen": "test",
					"script": {
						"exec": [
							"/*pm.test(\"Status code is 201\", function () {\r",
							"    pm.response.to.have.status(201);\r",
							"});\r",
							"//fetch the  requestbody parameters\r",
							"var requestbody =pm.request.body.raw;\r",
							"requestbody=JSON.parse(requestbody);\r",
							"console.log(requestbody);\r",
							"var req_name=requestbody.name;\r",
							"var req_job=requestbody.job;\r",
							"// fetch the responsebody\r",
							"var responsebody=pm.response.json();\r",
							"console.log(responsebody)\r",
							"// fetch the responsebody\r",
							"var res_name=responsebody.name;\r",
							"var res_job= responsebody.job;\r",
							"var res_id =responsebody.id;\r",
							"var res_createdAt=responsebody.createdAt;\r",
							"//validate the responsebody\r",
							"pm.test(\"validate the responsebody:name\",function()\r",
							"{\r",
							"pm.expect(res_name).to.eqls(req_name);\r",
							"});\r",
							"pm.test(\"validate the responsebody:job\",function()\r",
							"{\r",
							"pm.expect(res_job).to.eqls(req_job);\r",
							"});\r",
							"pm.test(\"validate the responsebody:id\",function()\r",
							"{\r",
							"pm.expect(res_id).to.not.null;\r",
							"});\r",
							"var expecteddate =new  Date().toISOString().slice(0,13);\r",
							"console.log(expecteddate);\r",
							"//validate the response body parameter:createdA\r",
							"pm.test(\"validate the response body parameter:createdAt\",function(){\r",
							"    pm.expect(res_createdAt.slice(0,13)).to.eql(expecteddate)})\r",
							"\r",
							"*/\r",
							"\r",
							"\r",
							"\r",
							"\r",
							"/*\r",
							"pm.test(\"status code is 201 \",function()\r",
							"{\r",
							"    pm.response.to.have.status(201);\r",
							"}\r",
							")\r",
							"//fetch the requestbody parameter\r",
							"var requestbody=pm.request.body.raw;\r",
							"requestbody=JSON.parse(requestbody);\r",
							"console.log(requestbody);\r",
							"var req_name=requestbody.name;\r",
							"var req_job=requestbody.job;\r",
							"// fetch the responsebody\r",
							"var responsebody=pm.response.json();\r",
							"var res_name= responsebody.name;\r",
							"var res_job =responsebody.job;\r",
							"var res_id=responsebody.id;\r",
							"var res_createdAt=responsebody.createdAt;\r",
							"//validate the responsebody parameters\r",
							"pm.test(\"validate the responsebody parameter name:\",function(){\r",
							"    pm.expect(res_name).to.eqls(req_name);\r",
							"}\r",
							");\r",
							"pm.test(\"validate the responsebody parameter job:\",function()\r",
							"{\r",
							"    pm.expect(res_job).to.eqls(req_job);\r",
							"});\r",
							"pm.test(\"validate the responsebody parameter id:\",function()\r",
							"{\r",
							" pm.expect(res_id).not.to.null;\r",
							"}\r",
							");\r",
							"var expecteddate=new Date().toISOString().slice(0,13);\r",
							"pm.test(\"validate the responsebody parameter createdAt:\",function()\r",
							"{\r",
							" pm.expect(res_createdAt.slice(0,13)).to.eql(expecteddate)})\r",
							";\r",
							"*/\r",
							"pm.test(\"status code is 201\",function()\r",
							"{\r",
							"    pm.response.to.have.status(201);\r",
							"});\r",
							""
						],
						"type": "text/javascript"
					}
				}
			],
			"request": {
				"method": "POST",
				"header": [],
				"body": {
					"mode": "raw",
					"raw": "{\r\n    \"name\": \"morpheus\",\r\n    \"job\": \"leader\"\r\n}\r\n",
					"options": {
						"raw": {
							"language": "json"
						}
					}
				},
				"url": {
					"raw": "https://reqres.in/api/users",
					"protocol": "https",
					"host": [
						"reqres",
						"in"
					],
					"path": [
						"api",
						"users"
					]
				}
			},
			"response": []
		},
		{
			"name": "post_req_chain",
			"event": [
				{
					"listen": "test",
					"script": {
						"exec": [
							"var statuscode=pm.response.status;\r",
							" var  countstart=pm.collectionVariables.get(\"start\");\r",
							" var countend=pm.collectionVariables.get(\"end\");\r",
							" if(statuscode==\"Created\")\r",
							" {\r",
							"     pm.test(\"Status code is 201\",function()\r",
							"     {\r",
							"         pm.response.to.have.status(201);\r",
							"     });\r",
							" }\r",
							" else\r",
							" {\r",
							"     if(countstart< countend)\r",
							"     {\r",
							"         pm.collectionVariables.set(\"start\",eval(countstart+1))\r",
							"         console.log(pm.collectionVariables.get(\"start\"));\r",
							"         postman.setNextRequest(\"post_req_chain\");\r",
							"     }\r",
							"     else\r",
							"     {\r",
							"         postman.setNextRequest(null);\r",
							"         pm.collectionVariables.set(\"start\",0);\r",
							"         pm.test(\"Status code is 200\",function()\r",
							"     {\r",
							"         pm.response.to.have.status(200);\r",
							"     });\r",
							"     }\r",
							" }"
						],
						"type": "text/javascript"
					}
				}
			],
			"request": {
				"method": "POST",
				"header": [],
				"body": {
					"mode": "raw",
					"raw": "{\r\n    \"name\": \"morpheus\",\r\n    \"job\": \"leader\"\r\n}\r\n",
					"options": {
						"raw": {
							"language": "json"
						}
					}
				},
				"url": {
					"raw": "https://reqres.in/api/users",
					"protocol": "https",
					"host": [
						"reqres",
						"in"
					],
					"path": [
						"api",
						"users"
					]
				}
			},
			"response": []
		}
	],
	"event": [
		{
			"listen": "prerequest",
			"script": {
				"type": "text/javascript",
				"exec": [
					""
				]
			}
		},
		{
			"listen": "test",
			"script": {
				"type": "text/javascript",
				"exec": [
					""
				]
			}
		}
	],
	"variable": [
		{
			"key": "coll_name",
			"value": ""
		},
		{
			"key": "coll_job",
			"value": ""
		},
		{
			"key": "coll_email",
			"value": ""
		},
		{
			"key": "start",
			"value": "0"
		},
		{
			"key": "end",
			"value": "5",
			"type": "string"
		}
	]
}